"Recall","Precision","F-measure"
98.75,94.0476190476191,96.3414634146342
95.7746478873239,91.8918918918919,93.7931034482759
86.8686868686869,68.2539682539683,76.4444444444444
93.8144329896907,68.9393939393939,79.4759825327511
88.1720430107527,61.6541353383459,72.5663716814159
98.8235294117647,94.3820224719101,96.551724137931
97.3333333333333,81.1111111111111,88.4848484848485
97.2602739726027,92.2077922077922,94.6666666666667
98.6486486486486,80.2197802197802,88.4848484848485
95.2941176470588,68.6440677966102,79.8029556650246
98.7654320987654,91.9540229885057,95.2380952380952
97.7272727272727,95.5555555555556,96.6292134831461
85.3932584269663,66.6666666666667,74.8768472906404
98.6486486486486,92.4050632911392,95.4248366013072
95.4022988505747,88.2978723404255,91.7127071823204
94.1176470588235,68.9655172413793,79.6019900497513
98.75,96.3414634146341,97.5308641975309
98.5074626865672,97.0588235294118,97.7777777777778
93.9024390243902,70.6422018348624,80.6282722513089
98.5714285714286,93.2432432432432,95.8333333333333
96.6666666666667,91.5789473684211,94.054054054054
94.8051948051948,82.0224719101124,87.9518072289157
94.9367088607595,73.5294117647059,82.8729281767956
95.1219512195122,63.9344262295082,76.4705882352941
97.0149253731343,90.2777777777778,93.5251798561151
95.7446808510638,85.7142857142857,90.4522613065327
98.7654320987654,82.4742268041237,89.8876404494382
97.2602739726027,78.8888888888889,87.1165644171779
98.6486486486486,93.5897435897436,96.0526315789474
94.8051948051948,85.8823529411765,90.1234567901235
98.8505747126437,91.4893617021277,95.0276243093923
97.4683544303797,83.695652173913,90.0584795321637
97.5609756097561,67.2268907563025,79.6019900497513
98.5294117647059,94.3661971830986,96.4028776978417
91.2087912087912,65.3543307086614,76.1467889908257
95.7894736842105,67.910447761194,79.4759825327511
95.8904109589041,88.6075949367088,92.1052631578947
97.1428571428571,80,87.741935483871
94.8717948717949,66.0714285714286,77.8947368421053
96.8085106382979,72.8,83.1050228310502
95.0617283950617,88.5057471264368,91.6666666666667
97.6470588235294,94.3181818181818,95.9537572254335
87.2340425531915,70.0854700854701,77.7251184834123
96.7391304347826,87.2549019607843,91.7525773195876
94.6808510638298,65.4411764705882,77.3913043478261
87.2549019607843,66.4179104477612,75.4237288135593
98.75,96.3414634146341,97.5308641975309
96.7032967032967,87.1287128712871,91.6666666666667
98.5294117647059,90.5405405405405,94.3661971830986
94.1860465116279,81,87.0967741935484
98.8235294117647,92.3076923076923,95.4545454545455
95.7746478873239,62.3853211009174,75.5555555555556
96.0526315789474,67.5925925925926,79.3478260869565
98.75,92.9411764705882,95.7575757575758
97.5903614457831,91.0112359550562,94.1860465116279
98.780487804878,92.0454545454545,95.2941176470588
98.8095238095238,89.247311827957,93.7853107344633
98.8372093023256,93.4065934065934,96.045197740113
